{
 "minutes": 15,
 "survey": "youtube.com",
 "modelFiles": [
  {"model.di": "<?xml version=\"1.0\" encoding=\"UTF-8\"?>\r\n<architecture:ArchitectureDescription xmi:version=\"2.0\" xmlns:xmi=\"http://www.omg.org/XMI\" xmlns:architecture=\"http://www.eclipse.org/papyrus/infra/core/architecture\" contextId=\"org.eclipse.papyrus.infra.services.edit.TypeContext\"/>\r\n"},
  {"model.notation": "<?xml version=\"1.0\" encoding=\"UTF-8\"?>\r\n<notation:Diagram xmi:version=\"2.0\" xmlns:xmi=\"http://www.omg.org/XMI\" xmlns:notation=\"http://www.eclipse.org/gmf/runtime/1.0.3/notation\" xmlns:style=\"http://www.eclipse.org/papyrus/infra/gmfdiag/style\" xmlns:uml=\"http://www.eclipse.org/uml2/5.0.0/UML\" xmi:id=\"_W1Ho4M-aEeuiWvc4DUsJFA\" type=\"PapyrusUMLClassDiagram\" name=\"MyClassDiagram\" measurementUnit=\"Pixel\">\r\n  <styles xmi:type=\"notation:StringValueStyle\" xmi:id=\"_W1Ho4c-aEeuiWvc4DUsJFA\" name=\"diagram_compatibility_version\" stringValue=\"1.4.0\"/>\r\n  <styles xmi:type=\"notation:DiagramStyle\" xmi:id=\"_W1Ho4s-aEeuiWvc4DUsJFA\"/>\r\n  <styles xmi:type=\"style:PapyrusDiagramStyle\" xmi:id=\"_W1Ho48-aEeuiWvc4DUsJFA\" diagramKindId=\"org.eclipse.papyrus.uml.diagram.class\">\r\n    <owner xmi:type=\"uml:Model\" href=\"model.uml#_Uc7pgM-aEeuiWvc4DUsJFA\"/>\r\n  <\/styles>\r\n  <element xmi:type=\"uml:Model\" href=\"model.uml#_Uc7pgM-aEeuiWvc4DUsJFA\"/>\r\n<\/notation:Diagram>\r\n"},
  {"model.uml": "<?xml version=\"1.0\" encoding=\"UTF-8\"?>\r\n<uml:Model xmi:version=\"20131001\" xmlns:xmi=\"http://www.omg.org/spec/XMI/20131001\" xmlns:uml=\"http://www.eclipse.org/uml2/5.0.0/UML\" xmi:id=\"_Uc7pgM-aEeuiWvc4DUsJFA\" name=\"model\">\r\n  <packageImport xmi:type=\"uml:PackageImport\" xmi:id=\"_UdY8gM-aEeuiWvc4DUsJFA\">\r\n    <importedPackage xmi:type=\"uml:Model\" href=\"pathmap://UML_LIBRARIES/UMLPrimitiveTypes.library.uml#_0\"/>\r\n  <\/packageImport>\r\n<\/uml:Model>\r\n"}
 ]
}